YouTube Trending Videos
…
## 
##  FALSE   TRUE 
## 120463    119

#it's a very small dataset so we will just remove without looking into these too much as they were deleted/errors/copyright violations
video_error_or_removed <- raw_data %>% 
        filter (video_error_or_removed == "TRUE")%>%
        select(country, channel_title, title, video_id) %>%
        group_by(country, channel_title, title, video_id) %>%
        summarize(count = n()) %>% #count = days_trending
        arrange(desc(count)) %>%
        print()

## # A tibble: 26 x 5
## # Groups:   country, channel_title, title [26]
##    country channel_title       title                             video_id  count
##    <fct>   <chr>               <chr>                             <chr>     <int>
##  1 GB      Cobra Kai           Cobra Kai Ep 2 - Strike First - ~ 1Aoc-cd9~    35
##  2 GB      BANGTANTV           Ep8 I NEED YOU | BTS: Burn the S~ PfLCyR6E~    18
##  3 GB      Google Spotlight S~ 360 Google Doodles/Spotlight Sto~ BEePFpC9~    12
##  4 US      googledoodles       Earth Day 2018 Google Doodle      q8v9MvMa~    12
##  5 US      Cobra Kai           Cobra Kai Ep 2 - Strike First - ~ 1Aoc-cd9~     7
##  6 CA      googledoodles       Earth Day 2018 Google Doodle      q8v9MvMa~     6
##  7 CA      Google Spotlight S~ 360 Google Doodles/Spotlight Sto~ BEePFpC9~     5
##  8 CA      Anna Akana          Youth & Consequences (Ep 2) - Th~ KjSSU1tr~     2
##  9 CA      Cobra Kai           Cobra Kai Ep 2 - Strike First - ~ 1Aoc-cd9~     2
## 10 GB      BANGTANTV           Ep4 Its on you and I | BTS: Bur~ Iiukq_il~     2
## # ... with 16 more rows
…
